{"page":2,"per_page":6,"total":12,"total_pages":2,"data":
[{"id":7,"email":"michael.lawson@reqres.in","first_name":"Michael","last_name":"Lawson"}]
,"support":{"url":"https://reqres.in/#support-heading","text":"To keep ReqRes free, contributions towards server costs are appreciated!"}}
